Timestamp	Value
2011-03-07 12:00:00	3
2011-03-07 12:03:27	2
2011-03-07 12:15:00	0
2011-03-07 12:20:00	3
2011-03-07 12:25:00	2
2011-03-07 12:30:00	0
2011-03-07 12:35:00	3
2011-03-07 12:40:00	2
2011-03-07 12:45:00	0