Timestamp	Value
2011-03-07 6:00:00	1
2011-03-07 6:10:00	3
2011-03-07 6:20:00	2
2011-03-07 6:30:00	3
2011-03-07 6:40:00	0
2011-03-07 6:50:00	3
2011-03-07 7:00:00	2
2011-03-07 7:10:00	0
2011-03-07 7:20:00	2
2011-03-07 7:30:00	3
2011-03-07 7:40:00	0
2011-03-07 7:50:00	3
2011-03-07 8:00:00	2
2011-03-07 8:10:00	0
2011-03-07 8:20:00	1
2011-03-07 8:30:00	1
2011-03-07 8:40:00	3
2011-03-07 8:50:00	2
2011-03-07 9:00:00	1